{
  "model": "CourseClasses",
  "settings": {
    "i18n": {
      "el": {
        "This the unique identifier of the course this class will be linked with": "Αυτός είναι ο μοναδικός αναγνωριστικός κωδικός του μαθημάτος με το οποίο θα συνδεθεί η τάξη αυτή",
        "Set the title of this class. It can differ from academic year to academic year.": "Ορίστε τον τίτλο της τάξης. Μπορεί να διαφέρει από ακαδημαϊκό έτος σε ακαδημαϊκό έτος.",
        "Select the academic period this course class will be taught.": "Επιλέξτε την ακαδημαϊκή περίοδο διδασκαλίας της τάξης αυτής.",
        "Select the academic year this course class will be taught.": "Επιλέξτε το ακαδημαϊκό έτος διδασκαλίας της τάξης αυτής.",
        "Set the maximum number of students that can be enrolled in this class. If left blank, no limit will be set.": "Ορίστε το μεγιστό αριθμό φοιτητών που μπορούν να εγγραφούν στην τάξης. Εάν αφεθεί κενό, δε θα οριστεί κάποιο όριο.",
        "Set the number of hours this class will be taught per week.": "Ορίστε τον εβδομαδιαίο αριθμό ωρών διδασκαλίας της τάξης αυτής.",
        "Set the total number of hours this class will be taught in the selected academic period": "Ορίστε τον αριθμό ωρών διδασκαλίας της τάξης αυτής την επιλεγμένη ακαδημαϊκή περίοδο"
      }
    }
  },
  "components": [
    {
      "type": "fieldset",
      "components": [
        {
          "customClass": "text-dark",
          "hideLabel": true,
          "type": "columns",
          "input": false,
          "columns": [
            {
              "components": [
                {
                  "label": "Course ID",
                  "labelPosition": "top",
                  "disabled": true,
                  "widget": {
                    "type": "input"
                  },
                  "validate": {
                    "required": false
                  },
                  "key": "course.id",
                  "type": "textfield",
                  "input": true,
                  "hidden": true,
                  "description": "This the unique identifier of the course this class will be linked with"
                }
              ],
              "width": 0
            },
            {
              "components": [
                {
                  "label": "Department",
                  "labelPosition": "top",
                  "widget": "choicesjs",
                  "dataSrc": "url",
                  "data": {
                    "url": "LocalDepartments",
                    "headers": []
                  },
                  "searchFields": [
                    "value.id",
                    "value.alternateName"
                  ],
                  "template": "<span class='d-block pr-5 text-truncate'>{{ item.name }}</span>",
                  "selectValues": "value",
                  "disabled": true,
                  "hidden": true,
                  "key": "department",
                  "valueProperty": "id",
                  "customDefaultValue": "value =data.course.department;",
                  "lazyLoad": false,
                  "type": "select",
                  "input": true,
                  "validate": {
                    "required": true
                  }
                }
              ],
              "width": 5
            }
          ]
        }
      ]
    },
    {
      "type": "fieldset",
      "legend": "Classes Details",
      "components": [
        {
          "customClass": "text-dark",
          "hideLabel": true,
          "type": "columns",
          "input": false,
          "columns": [
            {
              "components": [
                {
                  "label": "Class Title",
                  "labelPosition": "top",
                  "widget": {
                    "type": "input"
                  },
                  "validate": {
                    "required": true
                  },
                  "key": "title",
                  "type": "textfield",
                  "input": true,
                  "description": "Set the title of this class. It can differ from academic year to academic year."
                }
              ],
              "width": 12
            },
            {
              "components": [
                {
                  "label": "Period",
                  "labelPosition": "top",
                  "widget": "choicesjs",
                  "dataSrc": "url",
                  "data": {
                    "url": "AcademicPeriods",
                    "headers": []
                  },
                  "searchFields": [
                    "value.id",
                    "value.alternateName"
                  ],
                  "template": "<span class='d-block pr-5 text-truncate'>{{ item.name }}</span>",
                  "selectValues": "value",
                  "key": "period.id",
                  "valueProperty": "id",
                  "lazyLoad": false,
                  "type": "select",
                  "input": true,
                  "validate": {
                    "required": true
                  },
                  "description": "Select the academic period this course class will be taught."
                }
              ],
              "width": 2
            },
            {
              "components": [
                {
                  "label": "Academic Year",
                  "labelPosition": "top",
                  "widget": "choicesjs",
                  "dataSrc": "url",
                  "data": {
                    "url": "AcademicYears?$orderby=id desc",
                    "headers": []
                  },
                  "searchFields": [
                    "value.id",
                    "value.alternateName"
                  ],
                  "template": "<span class='d-block pr-5 text-truncate'>{{ item.alternateName }}</span>",
                  "selectValues": "value",
                  "key": "year.id",
                  "valueProperty": "id",
                  "lazyLoad": false,
                  "type": "select",
                  "input": true,
                  "validate": {
                    "required": true
                  },
                  "description": "Select the academic year this course class will be taught."
                }
              ],
              "width": 3
            }
          ]
        }
      ]
    },
    {
      "type": "fieldset",
      "legend": "Teaching Details",
      "components": [
        {
          "customClass": "text-dark",
          "hideLabel": true,
          "type": "columns",
          "input": false,
          "columns": [
            {
              "components": [
                {
                  "label": "Max Number of Students",
                  "labelPosition": "top",
                  "widget": {
                    "type": "input"
                  },
                  "validate": {
                    "required": false,
                    "integer": true
                  },
                  "key": "maxNumberOfStudents",
                  "type": "number",
                  "input": true,
                  "description": "Set the maximum number of students that can be enrolled in this class. If left blank, no limit will be set."
                }
              ],
              "width": 4
            },
            {
              "components": [
                {
                  "label": "Week Hours",
                  "labelPosition": "top",
                  "widget": {
                    "type": "input"
                  },
                  "validate": {
                    "required": false,
                    "integer": true
                  },
                  "key": "weekHours",
                  "type": "number",
                  "input": true,
                  "description": "Set the number of hours this class will be taught per week."
                }
              ],
              "width": 4
            },
            {
              "components": [
                {
                  "label": "Total Hours",
                  "labelPosition": "top",
                  "widget": {
                    "type": "input"
                  },
                  "validate": {
                    "required": false,
                    "integer": true
                  },
                  "key": "totalHours",
                  "type": "number",
                  "input": true,
                  "description": "Set the total number of hours this class will be taught in the selected academic period"
                }
              ],
              "width": 4
            }
          ]
        }
      ]
    },
    {
      "type": "button",
      "label": "Submit",
      "key": "submit",
      "disableOnInvalid": true,
      "input": true
    }
  ]
}
