{
  "model": "StudentTheses",
  "columns": [
    {
      "name": "thesis/instructor/id",
      "property": "instructorId",
      "hidden": true,
      "title": "Theses.InstructorId"
    },
    {
      "name": "thesis/name",
      "property": "title",
      "title": "Theses.ThesesName"
    },
    {
      "name": "thesis/startYear/alternateName",
      "property": "startYear",
      "title": "Theses.StartYear"
    },
    {
      "name": "thesis/startPeriod/alternateName",
      "property": "startPeriod",
      "title": "Theses.StartPeriod",
      "formatter": "TranslationFormatter",
      "formatString": "Periods.${value}"
    },
    {
      "name": "thesis/instructor/familyName",
      "property": "instructorFamilyName",
      "hidden": true,
      "title": "Theses.InstructorFamilyName"
    },
    {
      "name": "thesis/instructor/givenName",
      "property": "instructorGivenName",
      "title": "Theses.InstructorFullName",
      "formatter": "TemplateFormatter",
      "formatString": "${instructorFamilyName} ${instructorGivenName}"
    },
    {
      "name": "thesis/type/alternateName",
      "property": "thesisType",
      "title": "Theses.ThesisType.type",
      "formatter": "TranslationFormatter",
      "formatString": "Theses.ThesisType.${value}"
    },

    {
      "name": "thesis/status/alternateName",
      "property": "thesisStatus",
      "title": "Theses.ThesisStatus.status",
      "formatters": [
        {
          "formatter": "TranslationFormatter",
          "formatString": "Theses.ThesisStatus.${value}"
        },
        {
          "formatter": "NgClassFormatter",
          "formatOptions": {
            "ngClass": {
              "text-danger": "'${thesisStatus}'==='cancelled' || '${thesisStatus}'==='paused'",
              "text-success": "'${thesisStatus}'==='active'"
            }
          }
        }
      ]
    },
    {
      "name": "formattedGrade",
      "property": "formattedGrade",
      "title": "Theses.Grade"
    },
    {
      "name":"thesis/id",
      "property": "id",
      "formatter": "ButtonFormatter",
      "formatString": "#/theses/${id}/dashboard",
      "className": "text-center",
      "formatOptions": {
        "buttonContent": "<i class=\"far fa-eye text-indigo\"></i>",
        "buttonClass": "btn btn-default"
      }
    }
  ],
  "defaults":{
    "filter": "(student/department eq ${currentDepartment})"
  },
  "criteria": [
    {
      "name": "thesisName",
      "filter": "(indexof(thesis/name, '${value}') ge 0)",
      "type": "text"
    },
    {
      "name": "studentName",
      "filter": "(indexof(student/person/familyName, '${value}') ge 0 or indexof(student/person/givenName, '${value}') ge 0)",
      "type": "text"
    },
    {
      "name": "studentIdentifier",
      "filter": "(student/studentIdentifier eq '${value}')",
      "type": "text"
    },
    {
      "name": "startYearId",
      "filter": "(thesis/startYear/id eq '${value}')",
      "type": "text"
    },
    {
      "name": "startPeriod",
      "filter": "(thesis/startPeriod/alternateName eq '${value}')",
      "type": "text"
    },
    {
      "name": "instructorName",
      "filter": "(indexof(thesis/instructor/familyName, '${value}') ge 0 or indexof(thesis/instructor/givenName, '${value}') ge 0)",
      "type": "text"
    },
    {
      "name": "statusId",
      "filter": "(thesis/status/alternateName eq '${value}') ",
      "type": "text"
    }
  ]
}
