{
  "title": "Students.Suspended",
  "model": "StudentSuspensions",
  "searchExpression":"indexof(student/studentIdentifier, '${text}') ge 0 or indexof(student/person/familyName, '${text}') ge 0 or indexof(student/person/givenName, '${text}') ge 0 or indexof(student/user/name, '${text}') ge 0 or indexof(student/studyProgram/name, '${text}') ge 0 or indexof(student/studentStatus/name, '${text}') ge 0 or indexof(student/uniqueIdentifier, '${text}') ge 0",
  "selectable": true,
  "multipleSelect": true,
  "columns": [
    {
      "name":"id",
      "property": "suspensionId",
      "formatter": "ActionLinkFormatter",
      "actions" : [
        {
          "title": "Students.Preview",
          "href": "#/students/${id}/dashboard"
        },
        {
          "title": "Students.PreviewStudyProgram",
          "href": "#/study-programs/${studyProgramId}/preview/general"
        },
        {
          "title": "Students.PreviewStudentCourses",
          "href": "#/students/${id}/dashboard/courses",
          "role": "action"
        },
        {
          "title": "Students.Edit",
          "href": "#/students/${id}/edit",
          "access":[
            {
              "studentStatuses": [
                {"alternateName" : "active"}
              ]
            }
          ]
        },
        {
          "title": "Students.CompleteInscription",
          "href": "#/students/${id}/dashboard/overview/(modal:/inscription-edit)",
          "access":[
            {
              "studentStatuses": [
                {"alternateName" : "candidate"}
              ]
            }
          ]
        },
        {
          "title": "Students.DeletionRequest",
          "href": "#/students/${id}/dashboard/overview/(modal:/remove-request)",
          "access":[
            {
              "studentStatuses": [
                {"alternateName" : "active"}
              ]
            }
          ]
        },
        {
          "title": "Students.NewInternship",
          "href": "#/students/${id}/dashboard/overview/(modal:/internship/new)",
          "access":[
            {
              "studentStatuses": [
                {"alternateName" : "active"}
              ]
            }
          ]
        }
      ]
    },
    {
      "name":"student/studyProgram",
      "property": "studyProgramId",
      "hidden": true
    },
    {
      "name":"student/studyProgramSpecialty",
      "property": "studyProgramSpecialtyId",
      "hidden": true
    },
    {
      "name":"student/id",
      "property": "id",
      "hidden": true
    },
    {
      "name":"student/studentIdentifier",
      "property": "studentIdentifier",
      "title":"Students.studentIdentifier"
    },
    {
      "name":"student/person/familyName",
      "property": "familyName",
      "title":"Students.fullName",
      "formatter": "TemplateFormatter",
      "formatString": "${familyName} ${givenName}"
    },
    {
      "name":"student/person/givenName",
      "property": "givenName",
      "title":"Students.GivenName",
      "hidden": true
    },
    {
      "name":"student/department/name",
      "property": "departmentName",
      "title":"Students.Department",
      "hidden": true
    },
    {
      "name":"student/studyProgram/abbreviation",
      "property": "studyProgram",
      "title":"Students.studyProgram"
    },
    {
      "name":"student/studyProgramSpecialty/abbreviation",
      "property": "studyProgramSpecialty",
      "title":"Students.Specialty"
    },
    {
      "name":"student/semester",
      "property": "semester",
      "title":"Students.semester"
    },
    {
      "name":"suspensionDate",
      "title":"Students.Suspension.SuspensionDate",
      "formatter": "DateTimeFormatter",
      "formatString": "shortDate"
    },
    {
      "name":"suspensionYear/alternateName",
      "property": "suspensionYear",
      "title":"Students.Suspension.SuspensionYear"
    },

    {
      "name":"suspensionPeriod/alternateName",
      "property": "suspensionPeriod",
      "title":"Students.Suspension.SuspensionPeriod",
      "formatter": "TranslationFormatter",
      "formatString": "Periods.${value}"
    },
    {
      "name":"suspensionPeriods",
      "title":"Students.Suspension.SuspensionPeriods"
    },
    {
      "name":"student/studentStatus/alternateName",
      "property": "studentStatus",
      "title":"Students.studentStatus",
      "hidden": true
    }
  ],
  "criteria": [
    {
      "name": "student/studentIdentifier",
      "filter": "(studentIdentifier eq '${value}')",
      "type": "text"
    },
    {
      "name": "studentName",
      "filter": "(indexof(student/person/familyName, '${value}') ge 0 or indexof(student/person/givenName, '${value}') ge 0)",
      "type": "text"
    },
    {
      "name": "username",
      "filter": "(indexof(student/user/name, '${value}') ge 0)",
      "type": "text"
    },
    {
      "name": "studyProgram",
      "filter": "(student/studyProgram eq ${value})",
      "type": "text"
    },
    {
      "name": "studyProgramSpecialty",
      "filter": "(student/studyProgramSpecialty eq '${value.id}')",
      "type": "text"
    },
    {
      "name": "inscriptionMode",
      "filter": "(student/inscriptionMode/id eq '${value}')",
      "type": "text"
    },
    {
      "name": "inscriptionYear",
      "filter": "(student/inscriptionYear/id eq '${value}')",
      "type": "text"
    },
    {
      "name": "inscriptionPeriod",
      "filter": "(student/inscriptionPeriod/id eq '${value}')",
      "type": "text"
    },
    {
      "name": "semester",
      "filter": "(student/semester eq '${value}')",
      "type": "text"
    }
  ],
  "defaults":{
    "filter": "(student/department eq ${currentDepartment} and student/studentStatus/alternateName eq 'suspended' and reintegrated eq 0)",
    "orderBy": "suspensionDate desc"
  },
  "paths" : [
    {
      "name": "Students.All",
      "show": true,
      "alternateName": "list",
      "filter": {
      }
    },
    {
      "name": "Students.Active",
      "alternateName": "active",
      "show": true,
      "filter": {
        "status": "active"
      }
    },
    {
      "name": "Students.FirstYear",
      "alternateName": "first-year",
      "filter": {
        "firstYearStudents": true
      }
    },
    {
      "name": "Students.Candidates",
      "alternateName": "candidates",
      "filter": {
        "status": "candidate"
      }
    },
    {
      "name": "Students.Declared",
      "alternateName": "declared",
      "filter": {
        "status": "declared"
      }
    },
    {
      "name": "Students.Graduated",
      "alternateName": "graduated",
      "filter": {
        "status": "graduated"
      }
    },
    {
      "name": "Students.Suspended",
      "alternateName": "suspended",
      "filter": {
        "status": "suspended"
      }
    },
    {
      "name": "Students.Removed",
      "alternateName": "removed",
      "filter": {
        "status": "erased"
      }
    }
  ]
}
