{
  "title": "Requests",
  "model": "DocumentConfigurations",
  "columns": [
    {
      "name":"name",
      "property": "name",
      "title":"Requests.Name"
    },
    {
      "name":"inLanguage",
      "property": "inLanguage",
      "title":"Requests.InLanguage",
      "formatter": "LanguageFormatter"
    },
    {
      "name":"reportTemplate/name",
      "property": "reportTemplate",
      "title":"Reports.Attributes.reportTemplate"
    },
    {
      "name":"dateCreated",
      "property": "dateCreated",
      "title":"Requests.CreationDate",
      "formatter": "DateTimeFormatter",
      "formatString": "medium"
    },
    {
      "name":"dateModified",
      "property": "dateModified",
      "title":"Requests.Preview.DateModified",
      "formatter": "DateTimeFormatter",
      "formatString": "medium"
    },
    {
      "name": "id",
      "formatter": "ButtonFormatter",
      "formatString":"(modal:edit)",
      "className": "text-center",
      "formatOptions": {
        "buttonContent": "<i class=\"far fa-edit text-indigo\"></i>",
        "buttonClass": "btn btn-default"
      }
    }
  ]
}
