{
  "model": "Courses",
  "subtitle": "ComplexCourse",
  "settings": {
    "i18n": {
      "el": {
        "CoursePartHelp": "Ορίστε τα μέρη του σύνθετου μαθήματος. Ορίστε τουλάχιστον δύο μέρη μαθήματος ",
        "This is the unique code of the course": "Αυτός είναι ο μοναδικός αναγνωριστικός κωδικός του μαθήματος",
        "This is the display code which will be shown in transcripts, student course registration and online.": "Αυτός είναι ο κωδικός εμφάνισης του μαθήματος, ο οποίος εμφανίζεται στις αναλυτικές βαθμολογίες, τις δηλώσεις μαθήματων και στο διαδίκτυο.",
        "This is the course title.": "Αυτός είναι ο τίτλος του μαθήματος.",
        "Select the grade scale for this course. Make sure you select the correct one, as you won't be able to change it later.": "Επιλέξτε την κλίμακα βαθμολογίας αυτού του μαθήματος. Σιγουρευτείτε ότι επιλέξατε την σωστή, καθώς δεν θα μπορείτε να την αλλάξετε μετά την δημιουργία του μαθήματος.",
        "Select if this course will be active or has been discontinued. If active, you will be able to add it to study programs, created classes for the course.": "Επιλέξτε εάν το μάθημα θα είναι ενεργό ή έχει καταργηθεί. Εάν είναι ενεργό, θα μπορείτε να το προσθέσετε σε προγραμματα σπουδών, να δημιουργήσετε τάξεις για αυτό.",
        "Set the number of units the course offers if passed.": "Ορίστε τον αριθμό των διδακτικών μονάδων που προσφέρει το μάθημα εάν περαστεί.",
        "Set the number of ECTS the course offers if passed.": "Ορίστε τον αριθμό των ECTS που προσφέρει το μάθημα εάν περαστεί.",
        "Select the department this course will belong to. It defaults to your current department.": "Επιλέξτε το τμήμα στο οποίο θα ανήκει το μάθημα. Η προεπιλογή είναι το ενεργό τμήμα σας.",
        "Select the scientific supervising instructor of the course.": "Ορίστε τον επιστημονικό επιβλέπον καθηγητή του μαθήματος.",
        "Select the structure of the course. It can not be edited after course creation. The course has to be substituted by another course, with the same details and a different structure.": "Επιλέξτε την δομή του μαθήματος. Το πεδίο αυτό δεν μπορεί να αλλάξει μετά την δημιουργία του μαθήματος. Θα πρέπει να αντικατασταθεί από άλλο μάθημα με τις ίδιες ιδιότητες και διαφορετική δομή.",
        "It is recommended to go with complex course display code - A.B.C to indicate the parent-child course relationship in transcripts and course registrations.": "Συνιστάται να συμπληρώσετε το πεδίο ως κωδικός εμφάνισης του σύνθετου μαθήματος - Α,Β,Γ για να υποδείξετε την σχέση γονέα-παιδίου των μαθημάτων στις αναλυτικές βαθμολογίες και τις δηλώσεις μαθημάτων.",
        "Set the name of the course part. This title will be shown in transcripts, student registrations and student courses.": "Ορίστε το όνομα του μέρους του σύνθετου μαθήματος. Ο τίτλος θα φαίνεται στις αναλυτικές βαθμολογίες, στις δηλώσεις μαθημάτων και την καρτέλα του φοιτητή.",
        "This indicates the participation rate the course part has in the final course grade. This field takes only percentages (10%) or decimal numbers (0.1) that add up to 100% or 1 respectively.": "Υποδεικνύει το ποσοστό συμμετοχής του μέρους του σύνθετου στον τελικό βαθμό του μαθήματος.",
        "Before you submit, remember to specify the complex course's parts in the \"Course Parts\" tab.": "Πριν προχωρήσετε στην υποβολή, θυμηθείτε να ορίσετε τα μέρη του σύνθετου μαθήματος στην καρτέλα \"Μέρη μαθήματος\".",
        "Percentages must be all equal, or add up to 100 or 1.": "Τα ποσοστά πρέπει είτε να είναι όλα ίδια, είτε το άθροισμα τους να ισούται με 100 ή 1."
      },
      "en": {
        "CoursePartHelp": "The following list contains the course parts of the parent course. Add at least two course parts"
      }
    }
  },
  "components": [
    {
      "label": "Tabs",
      "components": [
        {
          "label": "ComplexCourse",
          "key": "general",
          "components": [
            {
              "label": "Columns",
              "columns": [
                {
                  "components": [
                    {
                      "label": "ID",
                      "labelPosition": "top",
                      "widget": {
                        "type": "input"
                      },
                      "validate": {
                        "required": true
                      },
                      "key": "id",
                      "type": "textfield",
                      "input": true,
                      "disabled": false,
                      "description": "This is the unique code of the course"
                    },
                    {
                      "label": "Course Name",
                      "labelPosition": "top",
                      "widget": {
                        "type": "input"
                      },
                      "validate": {
                        "required": true
                      },
                      "key": "name",
                      "type": "textfield",
                      "input": true,
                      "description": "This is the course title."
                    },
                    {
                      "label": "Grade Scale",
                      "labelPosition": "top",
                      "widget": "choicesjs",
                      "searchEnabled": true,
                      "dataSrc": "url",
                      "data": {
                        "values": [],
                        "url": "/GradeScales?$top=-1&$skip=0&$select=id,name"
                      },
                      "validate": {
                        "required": true
                      },
                      "selectThreshold": 0.3,
                      "lazyLoad": false,
                      "template": "{{ item.name }}",
                      "valueProperty": "id",
                      "selectValues": "value",
                      "key": "gradeScale",
                      "type": "select",
                      "input": true,
                      "description": "Select the grade scale for this course. Make sure you select the correct one, as you won't be able to change it later."
                    }
                  ],
                  "width": 6,
                  "offset": 0,
                  "push": 0,
                  "pull": 0,
                  "size": "md"
                },
                {
                  "components": [
                    {
                      "label": "Course display code",
                      "labelPosition": "top",
                      "widget": {
                        "type": "input"
                      },
                      "validate": {
                        "required": true
                      },
                      "key": "displayCode",
                      "type": "textfield",
                      "input": true,
                      "disabled": false,
                      "description": "This is the display code which will be shown in transcripts, student course registration and online."
                    },
                    {
                      "label": "Instructor",
                      "widget": "choicesjs",
                      "dataSrc": "url",
                      "defaultValue": "",
                      "labelPosition": "top",
                      "data": {
                        "values": [],
                        "url": "/Instructors?$top={{limit}}&$skip={{skip}}&$select=id,familyName,givenName&$filter=indexof(familyName, '{{encodeURIComponent(search||'')}}') ge 0",
                        "headers": []
                      },
                      "lazyLoad": true,
                      "searchField": "search",
                      "searchEnabled": true,
                      "selectThreshold": 1,
                      "limit": 20,
                      "validate": {
                        "required": true
                      },
                      "dataType": "object",
                      "idPath": "id",
                      "template": "{{ item.familyName }} {{ item.givenName }}",
                      "key": "instructor",
                      "type": "select",
                      "selectValues": "value",
                      "input": true,
                      "description": "Select the scientific supervising instructor of the course."
                    },
                    {
                      "label": "Enabled",
                      "labelPosition": "top",
                      "widget": "choicesjs",
                      "searchEnabled": false,
                      "data": {
                        "values": [
                          {
                            "label": "No",
                            "value": "0"
                          },
                          {
                            "label": "Yes",
                            "value": "1"
                          }
                        ]
                      },
                      "dataType": "string",
                      "validate": {
                        "required": true
                      },
                      "selectThreshold": 0.3,
                      "key": "isEnabled",
                      "selectValues": "value",
                      "type": "select",
                      "input": true,
                      "defaultValue": "1",
                      "hidden": true,
                      "description": "Select if this course will be active or has been discontinued. If active, you will be able to add it to study programs, created classes for the course."
                    },
                    {
                      "label": "Department",
                      "widget": "choicesjs",
                      "dataSrc": "url",
                      "defaultValue": "",
                      "labelPosition": "top",
                      "customConditional": "show = !!data.department;",
                      "data": {
                        "url": "/LocalDepartments?$top=1&$skip=0&$select=id,name&$filter=id eq {{data.department}}",
                        "headers": []
                      },
                      "validate": {
                        "required": false
                      },
                      "valueProperty": "id",
                      "lazyLoad": false,
                      "dataType": "string",
                      "template": "{{ item.name }}",
                      "selectThreshold": 0.3,
                      "key": "department",
                      "type": "select",
                      "selectValues": "value",
                      "input": true,
                      "disabled": true,
                      "hidden": true,
                      "description": "Select the department this course will belong to. It defaults to your current department."
                    },
                    {
                      "label": "Course Structure Type",
                      "labelPosition": "top",
                      "widget": "choicesjs",
                      "searchEnabled": false,
                      "dataSrc": "url",
                      "data": {
                        "values": [],
                        "url": "/CourseStructureTypes?$top=-1&$skip=0&$select=id,name"
                      },
                      "validate": {
                        "required": false
                      },
                      "selectThreshold": 0.3,
                      "lazyLoad": false,
                      "template": "{{ item.name }}",
                      "valueProperty": "id",
                      "selectValues": "value",
                      "defaultValue": 4,
                      "key": "courseStructureType",
                      "type": "select",
                      "input": true,
                      "disabled": true,
                      "hidden": true,
                      "description": "Select the structure of the course. It can not be edited after course creation. The course has to be substituted by another course, with the same details and a different structure."
                    },
                    {
                      "label": "ECTS",
                      "labelPosition": "top",
                      "widget": {
                        "type": "input"
                      },
                      "validate": {
                        "required": false,
                        "min": 0
                      },
                      "key": "ects",
                      "type": "number",
                      "input": true,
                      "description": "Set the number of ECTS the course offers if passed."
                    },
                    {
                      "label": "Units",
                      "labelPosition": "top",
                      "widget": {
                        "type": "input"
                      },
                      "validate": {
                        "required": false,
                        "min": 0
                      },
                      "key": "units",
                      "type": "number",
                      "input": true,
                      "description": "Set the number of units the course offers if passed."
                    },
                    {
                      "components": [
                        {
                          "content": "Before you submit, remember to specify the complex course's parts in the \"Course Parts\" tab.",
                          "customClass": "text-indigo",
                          "type": "htmlelement"
                        }
                      ]
                    }
                  ],
                  "width": 6,
                  "offset": 0,
                  "push": 0,
                  "pull": 0,
                  "size": "md"
                }
              ],
              "key": "columns",
              "type": "columns",
              "input": false,
              "tableView": false
            }
          ]
        },
        {
          "label": "CoursePart",
          "components": [
            {
              "label": "CoursePartHelp",
              "customClass": "border-0",
              "reorder": false,
              "addAnotherPosition": "bottom",
              "defaultOpen": false,
              "layoutFixed": false,
              "enableRowGroups": false,
              "initEmpty": true,
              "tableView": false,
              "addAnother": "AddItem",
              "key": "courseParts",
              "type": "datagrid",
              "input": true,
              "conditional": {
                "show": false,
                "when": "local",
                "eq": "false"
              },
              "components": [
                {
                  "columns": [
                    {
                      "components": [
                        {
                          "label": "Course display code",
                          "labelPosition": "top",
                          "widget": {
                            "type": "input"
                          },
                          "key": "displayCode",
                          "customDefaultValue": "value = data.displayCode ? data.displayCode + \"-\": \"\"",
                          "type": "textfield",
                          "input": true,
                          "disabled": false,
                          "validate": {
                            "required": true
                          },
                          "description": "It is recommended to go with complex course display code - A.B.C to indicate the parent-child course relationship in transcripts and course registrations."
                        }
                      ],
                      "width": 2,
                      "offset": 0,
                      "push": 0,
                      "pull": 0,
                      "size": "md"
                    },
                    {
                      "components": [
                        {
                          "label": "Course Name",
                          "labelPosition": "top",
                          "customDefaultValue": "value = data.name ? data.name + \" - \": \"\"",
                          "customClass": "mt-3",
                          "widget": {
                            "type": "input"
                          },
                          "validate": {
                            "required": true
                          },
                          "key": "name",
                          "type": "textfield",
                          "input": true,
                          "description": "Set the name of the course part. This title will be shown in transcripts, student registrations and student courses."
                        }
                      ],
                      "width": 6,
                      "offset": 0,
                      "push": 0,
                      "pull": 0,
                      "size": "md"
                    },
                    {
                      "components": [
                        {
                          "label": "CoursePartPercent",
                          "labelPosition": "top",
                          "widget": {
                            "type": "input"
                          },
                          "validate": {
                            "required": true,
                            "min": 0,
                            "max": 100,
                            "custom": "const dataGrid = data.courseParts || []; const percentValidator = { percentSum: 0, firstPercentValue: parseFloat(dataGrid[0]['coursePartPercent']), identicalValues: true, totalCount: 0}; for(let i=0 ; i < dataGrid.length; i++) { const percentValue = dataGrid[i]['coursePartPercent']; percentValidator.percentSum += parseFloat(percentValue); percentValidator.totalCount++; if(percentValue !== percentValidator.firstPercentValue) {percentValidator.identicalValues = false;}} valid = (percentValidator.percentSum === 100 || percentValidator.percentSum === 1 || percentValidator.identicalValues || percentValidator.totalCount === 1) ? true : 'Percentages must be all equal, or add up to 100 or 1.'; "
                          },
                          "key": "coursePartPercent",
                          "type": "number",
                          "input": true,
                          "description": "This indicates the participation rate the course part has in the final course grade. This field takes only percentages (10%) or decimal numbers (0.1) that add up to 100% or 1 respectively."
                        }
                      ],
                      "width": 2,
                      "offset": 0,
                      "push": 0,
                      "pull": 0,
                      "size": "md"
                    },
                    {
                      "components": [
                        {
                          "label": "CalculatedCoursePart",
                          "labelPosition": "top",
                          "widget": "choicesjs",
                          "searchEnabled": false,
                          "data": {
                            "values": [
                              {
                                "label": "No",
                                "value": "0"
                              },
                              {
                                "label": "Yes",
                                "value": "1"
                              }
                            ]
                          },
                          "dataType": "string",
                          "validate": {
                            "required": true
                          },
                          "selectThreshold": 0.3,
                          "key": "calculatedCoursePart",
                          "selectValues": "value",
                          "type": "select",
                          "input": true,
                          "defaultValue": "1",
                          "hidden": false
                        }
                      ],
                      "width": 2,
                      "offset": 0,
                      "push": 0,
                      "pull": 0,
                      "size": "md"
                    }
                  ],
                  "key": "columns",
                  "type": "columns",
                  "input": false,
                  "tableView": true
                }
              ]
            }
          ]
        }
      ],
      "key": "tabs",
      "type": "tabs",
      "input": false,
      "tableView": false
    },
    {
      "type": "button",
      "label": "Submit",
      "key": "submit",
      "conditional": {
        "show": false,
        "when": "courseParts[1]['name']",
        "eq": ""
      },
      "disableOnInvalid": true,
      "input": true,
      "tableView": false
    }
  ]
}
